{
  "schedules" : [ {
    "weekDay" : "Понедельник",
    "schedule" : [ {
	  "id":1,
      "weekNumber" : [0],
      "studentGroup" : [ "673602" ],
      "auditory" : [ "04-4" ],
      "startLessonTime" : "08:00",
      "endLessonTime" : "09:35",
      "subject" : "ООП",
      "lessonType" : "ЛК"
    }, {
	"id":2,
      "weekNumber" : [ 0 ],
      "studentGroup" : [ "673602" ],
      "auditory" : [ "04-4" ],
      "startLessonTime" : "09:45",
      "endLessonTime" : "11:20",
      "subject" : "Матем",
      "lessonType" : "ЛК"
    }, {
	"id":3,
      "weekNumber" : [ 1 ],
      "studentGroup" : [ "673602" ],
      "auditory" : [ "223-5" ],
      "startLessonTime" : "11:40",
      "endLessonTime" : "13:15",
      "subject" : "КС",
      "lessonType" : "ЛР"
    }, {
	"id":4,
      "weekNumber" : [ 4 ],
      "studentGroup" : [ "673602" ],
      "auditory" : [ "309-5" ],
      "startLessonTime" : "11:40",
      "endLessonTime" : "13:15",
      "subject" : "КС",
      "lessonType" : "ЛР"
    }, {
	"id":5,
      "weekNumber" : [ 4 ],
      "studentGroup" : [ "673602" ],
      "auditory" : [ "224-5" ],
      "startLessonTime" : "11:40",
      "endLessonTime" : "13:15",
      "subject" : "ООП",
      "lessonType" : "ЛР"
    }, {
	"id":5,
      "weekNumber" : [ 4 ],
      "studentGroup" : [ "673602" ],
      "auditory" : [ "224-5" ],
      "startLessonTime" : "13:25",
      "endLessonTime" : "15:00",
      "subject" : "ООП",
      "lessonType" : "ЛР"
    }, {
	"id":6,
      "weekNumber" : [ 2 ],
      "studentGroup" : [ "673602" ],
      "auditory" : [ "309-5" ],
      "startLessonTime" : "13:25",
      "endLessonTime" : "15:00",
      "subject" : "КС",
      "lessonType" : "ЛР"
    } ]
  }, {

    "weekDay" : "Вторник",
    "schedule" : [ {  "id":7,
      "weekNumber" : [ 0 ],
      "studentGroup" : [ "673602" ],
      "auditory" : [ ],
      "startLessonTime" : "08:00",
      "endLessonTime" : "16:00",
      "subject" : "СпецПодг",
      "lessonType" : "ПЗ"
    } ]
  }, {
  
    "weekDay" : "Среда",
    "schedule" : [ {"id":8,
      "weekNumber" : [ 0 ],
      "studentGroup" : [ "673602" ],
      "auditory" : [ "310a-4" ],
      "startLessonTime" : "09:45",
      "endLessonTime" : "11:20",
      "subject" : "Матем",
      "lessonType" : "ПЗ"
    }, {
	"id":9,
      "weekNumber" : [ 0 ],
      "studentGroup" : [ "673602" ],
      "auditory" : [ ],
      "startLessonTime" : "11:40",
      "endLessonTime" : "13:15",
      "subject" : "ФизК",
      "lessonType" : "ПЗ"
    }, {
	"id":10,
      "weekNumber" : [ 0 ],
      "studentGroup" : [ "673602" ],
      "auditory" : [ "431-1" ],
      "startLessonTime" : "13:25",
      "endLessonTime" : "15:00",
      "subject" : "БЖЧ",
      "lessonType" : "ЛК"
    }, {
	"id":11,
      "weekNumber" : [ 1 ],
      "studentGroup" : [ "673602" ],
      "auditory" : [ "605-2" ],
      "startLessonTime" : "15:20",
      "endLessonTime" : "16:55",
      "subject" : "БЖЧ",
      "lessonType" : "ПЗ"
    }, {
	"id":12,
      "weekNumber" : [ 2 ],
      "studentGroup" : [ "673602" ],
      "auditory" : [ "605-2" ],
      "startLessonTime" : "15:20",
      "endLessonTime" : "16:55",
      "subject" : "БЖЧ",
      "lessonType" : "ЛР"
    }, {
	"id":13,
      "weekNumber" : [ 3 ],
      "studentGroup" : [ "673602" ],
      "auditory" : [ "605-2" ],
      "startLessonTime" : "15:20",
      "endLessonTime" : "16:55",
      "subject" : "БЖЧ",
      "lessonType" : "ЛР"
  }]}, {
  
    "weekDay" : "Четверг",
    "schedule" : [ {
	"id":14,
      "weekNumber" : [ 1 ],
      "studentGroup" : [ "673602" ],
      "auditory" : [ "901-5" ],
      "startLessonTime" : "08:00",
      "endLessonTime" : "09:35",
      "subject" : "БЖЧ",
      "lessonType" : "ПЗ"
    }, {
	"id":15,
      "weekNumber" : [  3 ],
      "studentGroup" : [ "673602" ],
      "auditory" : [ "216а-5" ],
      "startLessonTime" : "11:40",
      "endLessonTime" : "13:15",
      "subject" : "ООП",
      "lessonType" : "ЛР"
    }, {
	"id":16,
      "weekNumber" : [  4 ],
      "studentGroup" : [ "673602" ],
      "auditory" : [ "419-4" ],
      "startLessonTime" : "11:40",
      "endLessonTime" : "13:15",
      "subject" : "Матем",
      "lessonType" : "ПЗ"
    }, {
	"id":17,
      "weekNumber" : [ 1 ],
      "studentGroup" : [ "673602" ],
      "auditory" : [ "213a-4" ],
      "startLessonTime" : "13:25",
      "endLessonTime" : "15:00",
      "subject" : "МСиСвИнфТ",
      "lessonType" : "ПЗ"
    }, {
	"id":18,
      "weekNumber" : [ 2 ],
      "studentGroup" : [ "673602" ],
      "auditory" : [ "904-5" ],
      "startLessonTime" : "13:25",
      "endLessonTime" : "15:00",
      "subject" : "ММЭ",
      "lessonType" : "ПЗ"
    }, {
	"id":19,
      "weekNumber" : [ 2 ],
      "studentGroup" : [ "673602" ],
      "auditory" : [ "901-5" ],
      "startLessonTime" : "15:20",
      "endLessonTime" : "16:55",
      "subject" : "Эк",
      "lessonType" : "ПЗ"
    } ]
  }, {
    "weekDay" : "Пятница",
    "schedule" : [ {
	"id":20,
      "weekNumber" : [ 1 ],
      "studentGroup" : [ "673602" ],
      "auditory" : [ "104-4" ],
      "startLessonTime" : "08:00",
      "endLessonTime" : "09:35",
      "subject" : "МСиСвИнфТ",
      "lessonType" : "ЛК"
    }, {
	"id":21,
      "weekNumber" : [ 2 ],
      "studentGroup" : [ "673602" ],
      "auditory" : [ "04-4" ],
      "startLessonTime" : "08:00",
      "endLessonTime" : "09:35",
      "subject" : "МСиСвИнфТ",
      "lessonType" : "ЛК"
    }, {
	"id":22,
      "weekNumber" : [ 0 ],
      "studentGroup" : [ "673602" ],
      "auditory" : [ ],
      "startLessonTime" : "09:45",
      "endLessonTime" : "11:20",
      "subject" : "ФизК",
      "lessonType" : "ПЗ"
    }, {
	"id":23,
      "weekNumber" : [  3 ],
      "studentGroup" : [ "673602" ],
      "auditory" : [ "04-4" ],
      "startLessonTime" : "11:40",
      "endLessonTime" : "13:15",
      "subject" : "Эк",
      "lessonType" : "ЛК"
  }
  ]
  }
]
}